DSCoV Single Cell
…
Calculating cluster 12

Calculating cluster 13

Look at the 3 marker genes with the biggest fold change per cluster

top_cluster_markers <- 
  cca_markers %>% 
  group_by(cluster) %>%
  dplyr::filter(avg_log2FC > 1) %>% 
  top_n(n = 3, wt = avg_log2FC)
print(top_cluster_markers, n = 37)

# A tibble: 39 × 7
# Groups:   cluster [14]
       p_val avg_log2FC pct.1 pct.2 p_val_adj cluster gene    
       <dbl>      <dbl> <dbl> <dbl>     <dbl> <fct>   <chr>   
 1 4.13e-254      88.8  1     0.905 5.81e-250 0       FTL     
 2 3.61e-215      33.9  0.934 0.368 5.07e-211 0       LGALS3  
 3 6.60e-113      90.2  0.985 0.687 9.28e-109 0       SAT1    
 4 2.09e- 16       2.60 0.99  0.953 2.94e- 12 1       RPS13   
 5 3.03e- 14       2.66 0.948 0.885 4.26e- 10 1       RPL29   
 6 1.59e-148      40.5  1     0.98  2.23e-144 2       RPS18   
 7 5.32e- 98      41.7  1     0.99  7.48e- 94 2       RPS2    
 8 2.23e- 32      37.6  0.995 0.97  3.13e- 28 2       RPS9    
 9 0              43.5  0.983 0.229 0         3       CCL2    
10 6.08e-126      27.6  0.992 0.765 8.54e-122 3       VIM     
11 8.78e-117      16.7  0.996 0.804 1.23e-112 3       SH3BGRL3
12 6.60e- 51       6.53 1     0.984 9.27e- 47 4       RPL32   
13 7.20e- 31       2.16 0.983 0.9   1.01e- 26 4       RPL31   
14 7.15e- 18       5.24 0.983 0.928 1.01e- 13 4       RPL30   
15 0              16.3  0.989 0.172 0         5       FCGR3A  
16 2.56e-296      12.4  0.977 0.22  3.59e-292 5       MS4A7   
17 1.50e- 72      38.0  0.98  0.872 2.11e- 68 5       HLA-E   
18 1.65e-  9       5.72 0.904 0.743 2.31e-  5 6       RPL7A   
19 1.07e-  4       9.07 0.98  0.942 1   e+  0 6       RPL26   
20 4.15e-  4       6.65 1     0.997 1   e+  0 6       RPLP1   
21 2.17e-  5       3.72 0.989 0.929 3.04e-  1 7       RPL23A  
22 2.49e-  5      11.2  1     0.984 3.49e-  1 7       RPS19   
23 9.02e-  5      10.5  0.901 0.936 1   e+  0 7       FAU     
24 2.53e- 69      28.7  0.961 0.751 3.56e- 65 8       BTG1    
25 6.21e- 35      25.9  0.906 0.812 8.73e- 31 8       UBB     
26 6.62e- 34      72.0  0.945 0.821 9.31e- 30 8       UBC     
27 9.97e-119      18.6  1     0.496 1.40e-114 9       SOD2    
28 2.42e- 75      19.8  0.917 0.465 3.39e- 71 9       CSTB    
29 3.30e- 11      14.0  1     0.999 4.64e-  7 9       HLA-B   
30 0               9.66 0.974 0.081 0         10      NKG7    
31 2.03e- 65      23.9  0.903 0.473 2.85e- 61 11      RAN     
32 1.56e- 59      30.7  0.976 0.736 2.20e- 55 11      YBX1    
33 7.94e- 38      30.8  0.988 0.887 1.12e- 33 11      PTMA    
34 2.59e-107     279.   1     0.55  3.64e-103 12      HLA-DRA 
35 1.47e-102     188.   1     0.68  2.06e- 98 12      CD74    
36 2.90e- 97     171.   0.994 0.341 4.08e- 93 12      LYZ     
37 4.25e-288      20.5  0.941 0.017 5.97e-284 13      TSPAN13 
# ℹ 2 more rows
…
